%YAML 1.1
%TAG !u! tag:unity3d.com,2011:
--- !u!114 &11400000
MonoBehaviour:
  m_ObjectHideFlags: 0
  m_CorrespondingSourceObject: {fileID: 0}
  m_PrefabInstance: {fileID: 0}
  m_PrefabAsset: {fileID: 0}
  m_GameObject: {fileID: 0}
  m_Enabled: 1
  m_EditorHideFlags: 0
  m_Script: {fileID: 11500000, guid: 110953428c5a7d942bb601a0ac3acf65, type: 3}
  m_Name: IsYourTurn
  m_EditorClassIdentifier: 
  type: 5
  oper: 0
  value: 1
  has_type: 0
  has_race: 0
  has_team: 0
  has_status: 0
