%YAML 1.1
%TAG !u! tag:unity3d.com,2011:
--- !u!114 &11400000
MonoBehaviour:
  m_ObjectHideFlags: 0
  m_CorrespondingSourceObject: {fileID: 0}
  m_PrefabInstance: {fileID: 0}
  m_PrefabAsset: {fileID: 0}
  m_GameObject: {fileID: 0}
  m_Enabled: 1
  m_EditorHideFlags: 0
  m_Script: {fileID: 11500000, guid: 87ecef176d27eb040a9770e0eefea2ec, type: 3}
  m_Name: TestPlayer
  m_EditorClassIdentifier: 
  id: _player
  title: Test Player
  avatar: {fileID: 0}
  cards:
  - {fileID: 11400000, guid: 2e8eac7ed58a29944a6d2c7d2539fca8, type: 2}
  - {fileID: 11400000, guid: 2e8eac7ed58a29944a6d2c7d2539fca8, type: 2}
  - {fileID: 11400000, guid: 2e8eac7ed58a29944a6d2c7d2539fca8, type: 2}
  - {fileID: 11400000, guid: 2e8eac7ed58a29944a6d2c7d2539fca8, type: 2}
  - {fileID: 11400000, guid: 2e8eac7ed58a29944a6d2c7d2539fca8, type: 2}
  - {fileID: 11400000, guid: 2e8eac7ed58a29944a6d2c7d2539fca8, type: 2}
  - {fileID: 11400000, guid: 2e8eac7ed58a29944a6d2c7d2539fca8, type: 2}
  - {fileID: 11400000, guid: 2e8eac7ed58a29944a6d2c7d2539fca8, type: 2}
  - {fileID: 11400000, guid: 2e8eac7ed58a29944a6d2c7d2539fca8, type: 2}
  - {fileID: 11400000, guid: 2e8eac7ed58a29944a6d2c7d2539fca8, type: 2}
